<?xml version="1.0" encoding="UTF-8" standalone="no"?>
<!DOCTYPE svg PUBLIC "-//W3C//DTD SVG 1.1//EN" "http://www.w3.org/Graphics/SVG/1.1/DTD/svg11.dtd">
<svg version="1.1" id="Layer_1" xmlns="http://www.w3.org/2000/svg" xmlns:xlink="http://www.w3.org/1999/xlink" x="0px" y="0px" width="16px" height="16px" viewBox="0 0 16 16" enable-background="new 0 0 16 16" xml:space="preserve">  <image id="image0" width="16" height="16" x="0" y="0"
    xlink:href="data:image/png;base64,iVBORw0KGgoAAAANSUhEUgAAABAAAAAQCAMAAAAoLQ9TAAAABGdBTUEAALGPC/xhBQAAACBjSFJN
AAB6JgAAgIQAAPoAAACA6AAAdTAAAOpgAAA6mAAAF3CculE8AAAAXVBMVEX/////9Or/vXz/u3j/
tm7/0aX/7d3/kyv/jR7/fgD/rmC7u7uGhobc3Nz/2bT/tnCMjIwzMzPDw8P/6NP/smj/1Kp/f39L
S0tVVVXj4+O3t7eLi4uTk5OWlpbu7u5cvveYAAAAAWJLR0QAiAUdSAAAAAd0SU1FB+IJDAEUKiRJ
uVQAAABASURBVBjTY2AgGjAyMTGzsCIJsLGzc3BygZncPLwQMT5OfjAtIChETwFhEVEwLSYoLiEh
ieRGKWkZWVk54j0JAOvXBEBQGEOjAAAAJXRFWHRkYXRlOmNyZWF0ZQAyMDE4LTA5LTEyVDAxOjIw
OjQyLTA3OjAwwN6uAQAAACV0RVh0ZGF0ZTptb2RpZnkAMjAxOC0wOS0xMlQwMToyMDo0Mi0wNzow
MLGDFr0AAAAASUVORK5CYII=" />
</svg>
